…
## Source:

[R for Data Science](https://r4ds.had.co.nz/data-visualisation.html)

### Chapter-3:(Data visualisation)

#### 3.2.1 The `mpg` data frame

``` r
mpg
```

    ## # A tibble: 234 x 11
    ##    manufacturer model    displ  year   cyl trans   drv     cty   hwy fl    class
    ##    <chr>        <chr>    <dbl> <int> <int> <chr>   <chr> <int> <int> <chr> <chr>
    ##  1 audi         a4         1.8  1999     4 auto(l~ f        18    29 p     comp~
    ##  2 audi         a4         1.8  1999     4 manual~ f        21    29 p     comp~
    ##  3 audi         a4         2    2008     4 manual~ f        20    31 p     comp~
    ##  4 audi         a4         2    2008     4 auto(a~ f        21    30 p     comp~
    ##  5 audi         a4         2.8  1999     6 auto(l~ f        16    26 p     comp~
    ##  6 audi         a4         2.8  1999     6 manual~ f        18    26 p     comp~
    ##  7 audi         a4         3.1  2008     6 auto(a~ f        18    27 p     comp~
    ##  8 audi         a4 quat~   1.8  1999     4 manual~ 4        18    26 p     comp~
    ##  9 audi         a4 quat~   1.8  1999     4 auto(l~ 4        16    25 p     comp~
    ## 10 audi         a4 quat~   2    2008     4 manual~ 4        20    28 p     comp~
    ## # ... with 224 more rows
…
There are multiple ways to find the number fo rows and columns in the
data frame.

  - Just by giving the data (say `mpg`) we can find the number of rows
    and columns, but this will run the whole data frame as well. That
    means a lot of bites and space.

<!-- end list -->

``` r
mpg
```

    ## # A tibble: 234 x 11
    ##    manufacturer model    displ  year   cyl trans   drv     cty   hwy fl    class
    ##    <chr>        <chr>    <dbl> <int> <int> <chr>   <chr> <int> <int> <chr> <chr>
    ##  1 audi         a4         1.8  1999     4 auto(l~ f        18    29 p     comp~
    ##  2 audi         a4         1.8  1999     4 manual~ f        21    29 p     comp~
    ##  3 audi         a4         2    2008     4 manual~ f        20    31 p     comp~
    ##  4 audi         a4         2    2008     4 auto(a~ f        21    30 p     comp~
    ##  5 audi         a4         2.8  1999     6 auto(l~ f        16    26 p     comp~
    ##  6 audi         a4         2.8  1999     6 manual~ f        18    26 p     comp~
    ##  7 audi         a4         3.1  2008     6 auto(a~ f        18    27 p     comp~
    ##  8 audi         a4 quat~   1.8  1999     4 manual~ 4        18    26 p     comp~
    ##  9 audi         a4 quat~   1.8  1999     4 auto(l~ 4        16    25 p     comp~
    ## 10 audi         a4 quat~   2    2008     4 manual~ 4        20    28 p     comp~
    ## # ... with 224 more rows
…
